Assembler report for HPSFPGA
Fri Jun 26 01:31:10 2015
Quartus II 64-Bit Version 14.1.0 Build 186 12/03/2014 SJ Web Edition


---------------------
; Table of Contents ;
---------------------
  1. Legal Notice
  2. Assembler Summary
  3. Assembler Settings
  4. Assembler Encrypted IP Cores Summary
  5. Assembler Generated Files
  6. Assembler Device Options: D:/Piotr/Dokumenty/git/VGA_DE1SOC/VGA_HPS_QSYS/output_files/HPSFPGA.sof
  7. Assembler Messages



----------------
; Legal Notice ;
----------------
Copyright (C) 1991-2014 Altera Corporation. All rights reserved.
Your use of Altera Corporation's design tools, logic functions 
and other software and tools, and its AMPP partner logic 
functions, and any output files from any of the foregoing 
(including device programming or simulation files), and any 
associated documentation or information are expressly subject 
to the terms and conditions of the Altera Program License 
Subscription Agreement, the Altera Quartus II License Agreement,
the Altera MegaCore Function License Agreement, or other 
applicable license agreement, including, without limitation, 
that your use is for the sole purpose of programming logic 
devices manufactured by Altera and sold by Altera or its 
authorized distributors.  Please refer to the applicable 
agreement for further details.



+---------------------------------------------------------------+
; Assembler Summary                                             ;
+-----------------------+---------------------------------------+
; Assembler Status      ; Successful - Fri Jun 26 01:31:10 2015 ;
; Revision Name         ; HPSFPGA                               ;
; Top-level Entity Name ; HPSFPGA                               ;
; Family                ; Cyclone V                             ;
; Device                ; 5CSEMA5F31C6                          ;
+-----------------------+---------------------------------------+


+----------------------------------+
; Assembler Settings               ;
+--------+---------+---------------+
; Option ; Setting ; Default Value ;
+--------+---------+---------------+


+--------------------------------------------------------------+
; Assembler Encrypted IP Cores Summary                         ;
+--------+--------------------------------------+--------------+
; Vendor ; IP Core Name                         ; License Type ;
+--------+--------------------------------------+--------------+
; Altera ; "Test Pattern Generator" (6AF7 00CA) ; Licensed     ;
+--------+--------------------------------------+--------------+


+-------------------------------------------------------------------------+
; Assembler Generated Files                                               ;
+-------------------------------------------------------------------------+
; File Name                                                               ;
+-------------------------------------------------------------------------+
; D:/Piotr/Dokumenty/git/VGA_DE1SOC/VGA_HPS_QSYS/output_files/HPSFPGA.sof ;
+-------------------------------------------------------------------------+


+---------------------------------------------------------------------------------------------------+
; Assembler Device Options: D:/Piotr/Dokumenty/git/VGA_DE1SOC/VGA_HPS_QSYS/output_files/HPSFPGA.sof ;
+----------------+----------------------------------------------------------------------------------+
; Option         ; Setting                                                                          ;
+----------------+----------------------------------------------------------------------------------+
; Device         ; 5CSEMA5F31C6                                                                     ;
; JTAG usercode  ; 0x0108BCDA                                                                       ;
; Checksum       ; 0x0108BCDA                                                                       ;
+----------------+----------------------------------------------------------------------------------+


+--------------------+
; Assembler Messages ;
+--------------------+
Info: *******************************************************************
Info: Running Quartus II 64-Bit Assembler
    Info: Version 14.1.0 Build 186 12/03/2014 SJ Web Edition
    Info: Processing started: Fri Jun 26 01:30:48 2015
Info: Command: quartus_asm --read_settings_files=off --write_settings_files=off HPSFPGA -c HPSFPGA
Info (115030): Assembler is generating device programming files
Info (11878): Hard Processor Subsystem configuration has not changed and a Preloader software update is not required
Info: Quartus II 64-Bit Assembler was successful. 0 errors, 0 warnings
    Info: Peak virtual memory: 748 megabytes
    Info: Processing ended: Fri Jun 26 01:31:10 2015
    Info: Elapsed time: 00:00:22
    Info: Total CPU time (on all processors): 00:00:19


